= 未分组 =
CCTV-1,http://cdnrrs.gx.chinamobile.com/PLTV/77777777/224/3221225934/index.m3u8?servicetype=1&
CCTV-10,http://cdnrrs.gx.chinamobile.com/PLTV/77777777/224/3221226004/index.m3u8?servicetype=1&
CCTV-11,http://cdnrrs.gx.chinamobile.com/PLTV/77777777/224/3221225895/index.m3u8?servicetype=1&
CCTV-12,http://cdnrrs.gx.chinamobile.com/PLTV/77777777/224/3221226013/index.m3u8?servicetype=1&
CCTV-13,http://cdnrrs.gx.chinamobile.com/PLTV/77777777/224/3221226046/index.m3u8?servicetype=1&
CCTV-14,http://cdnrrs.gx.chinamobile.com/PLTV/77777777/224/3221225901/index.m3u8?servicetype=1&
CCTV-15,http://cdnrrs.gx.chinamobile.com/PLTV/77777777/224/3221225945/index.m3u8?servicetype=1&
CCTV-16,http://cdnrrs.gx.chinamobile.com/PLTV/77777777/224/3221225937/index.m3u8?servicetype=1&
CCTV-17,http://cdnrrs.gx.chinamobile.com/PLTV/77777777/224/3221225910/index.m3u8?servicetype=1&
CCTV-2,http://cdnrrs.gx.chinamobile.com/PLTV/77777777/224/3221225948/index.m3u8?servicetype=1&
CCTV-3,http://cdnrrs.gx.chinamobile.com/PLTV/77777777/224/3221225916/index.m3u8?servicetype=1&
CCTV-4,http://cdnrrs.gx.chinamobile.com/PLTV/77777777/224/3221225922/index.m3u8?servicetype=1&
CCTV-5,http://cdnrrs.gx.chinamobile.com/PLTV/77777777/224/3221225925/index.m3u8?servicetype=1&
CCTV-6,http://cdnrrs.gx.chinamobile.com/PLTV/77777777/224/3221225936/index.m3u8?servicetype=1&
CCTV-7,http://cdnrrs.gx.chinamobile.com/PLTV/77777777/224/3221225892/index.m3u8?servicetype=1&
CCTV-8,http://cdnrrs.gx.chinamobile.com/PLTV/77777777/224/3221226001/index.m3u8?servicetype=1&
CCTV-9,http://cdnrrs.gx.chinamobile.com/PLTV/77777777/224/3221225939/index.m3u8?servicetype=1&
CCTV高尔夫网球,http://cdnrrs.gx.chinamobile.com/PLTV/77777777/224/3221225884/index.m3u8?servicetype=1&
CETV-1,http://cdnrrs.gx.chinamobile.com/PLTV/77777777/224/3221225776/index.m3u8?servicetype=1&
CETV-2,http://cdnrrs.gx.chinamobile.com/PLTV/77777777/224/3221225881/index.m3u8?servicetype=1&
CETV-4,http://cdnrrs.gx.chinamobile.com/PLTV/77777777/224/3221225723/index.m3u8?servicetype=1&
CGTN,http://cdnrrs.gx.chinamobile.com/PLTV/77777777/224/3221225816/index.m3u8?servicetype=1&
CGTN俄语,http://cdnrrs.gx.chinamobile.com/PLTV/77777777/224/3221225825/index.m3u8?servicetype=1&
CGTN法语,http://cdnrrs.gx.chinamobile.com/PLTV/77777777/224/3221225878/index.m3u8?servicetype=1&
CGTN纪录,http://cdnrrs.gx.chinamobile.com/PLTV/77777777/224/3221225707/index.m3u8?servicetype=1&
CGTN西语,http://cdnrrs.gx.chinamobile.com/PLTV/77777777/224/3221225875/index.m3u8?servicetype=1&
CGTN阿语,http://cdnrrs.gx.chinamobile.com/PLTV/77777777/224/3221225822/index.m3u8?servicetype=1&
NewTV中国功夫,http://cdnrrs.gx.chinamobile.com/PLTV/77777777/224/3221225690/index.m3u8?servicetype=1&
NewTV军事评论,http://cdnrrs.gx.chinamobile.com/PLTV/77777777/224/3221225749/index.m3u8?servicetype=1&
NewTV军旅剧场,http://cdnrrs.gx.chinamobile.com/PLTV/77777777/224/3221225727/index.m3u8?servicetype=1&
NewTV农业致富,http://cdnrrs.gx.chinamobile.com/PLTV/77777777/224/3221225687/index.m3u8?servicetype=1&
NewTV动作电影,http://cdnrrs.gx.chinamobile.com/PLTV/77777777/224/3221225703/index.m3u8?servicetype=1&
NewTV古装剧场,http://cdnrrs.gx.chinamobile.com/PLTV/77777777/224/3221225706/index.m3u8?servicetype=1&
NewTV家庭剧场,http://cdnrrs.gx.chinamobile.com/PLTV/77777777/224/3221225743/index.m3u8?servicetype=1&
NewTV怡伴健康,http://cdnrrs.gx.chinamobile.com/PLTV/77777777/224/3221225684/index.m3u8?servicetype=1&
NewTV惊悚悬疑,http://cdnrrs.gx.chinamobile.com/PLTV/77777777/224/3221225746/index.m3u8?servicetype=1&
NewTV明星大片,http://cdnrrs.gx.chinamobile.com/PLTV/77777777/224/3221225733/index.m3u8?servicetype=1&
NewTV武搏世界,http://cdnrrs.gx.chinamobile.com/PLTV/77777777/224/3221225758/index.m3u8?servicetype=1&
NewTV海外剧场,http://cdnrrs.gx.chinamobile.com/PLTV/77777777/224/3221225763/index.m3u8?servicetype=1&
NewTV潮妈辣婆,http://cdnrrs.gx.chinamobile.com/PLTV/77777777/224/3221225709/index.m3u8?servicetype=1&
NewTV爱情喜剧,http://cdnrrs.gx.chinamobile.com/PLTV/77777777/224/3221225698/index.m3u8?servicetype=1&
NewTV精品体育,http://cdnrrs.gx.chinamobile.com/PLTV/77777777/224/3221225724/index.m3u8?servicetype=1&
NewTV精品大剧,http://cdnrrs.gx.chinamobile.com/PLTV/77777777/224/3221225737/index.m3u8?servicetype=1&
NewTV精品纪录,http://cdnrrs.gx.chinamobile.com/PLTV/77777777/224/3221225681/index.m3u8?servicetype=1&
NewTV金牌综艺,http://cdnrrs.gx.chinamobile.com/PLTV/77777777/224/3221225755/index.m3u8?servicetype=1&
上海哈哈炫动,http://cdnrrs.gx.chinamobile.com/PLTV/77777777/224/3221225711/index.m3u8?servicetype=1&
上海纪实人文,http://cdnrrs.gx.chinamobile.com/PLTV/77777777/224/3221226016/index.m3u8?servicetype=1&
东南卫视,http://cdnrrs.gx.chinamobile.com/PLTV/77777777/224/3221225904/index.m3u8?servicetype=1&
东方卫视,http://cdnrrs.gx.chinamobile.com/PLTV/77777777/224/3221225942/index.m3u8?servicetype=1&
中文,http://cdnrrs.gx.chinamobile.com/PLTV/77777777/224/3221226331/index.m3u8?servicetype=1
云南卫视,http://cdnrrs.gx.chinamobile.com/PLTV/77777777/224/3221225794/index.m3u8?servicetype=1&
内蒙古卫视,http://cdnrrs.gx.chinamobile.com/PLTV/77777777/224/3221225751/index.m3u8?servicetype=1&
凤凰HK,http://cdnrrs.gx.chinamobile.com/PLTV/77777777/224/3221226321/index.m3u8?servicetype=1
北京冬奥纪实,http://cdnrrs.gx.chinamobile.com/PLTV/77777777/224/3221225995/index.m3u8?servicetype=1&
北京卡酷少儿,http://cdnrrs.gx.chinamobile.com/PLTV/77777777/224/3221225730/index.m3u8?servicetype=1&
北京卫视,http://cdnrrs.gx.chinamobile.com/PLTV/77777777/224/3221225889/index.m3u8?servicetype=1&
厦门卫视,http://cdnrrs.gx.chinamobile.com/PLTV/77777777/224/3221225823/index.m3u8?servicetype=1&
吉林卫视,http://cdnrrs.gx.chinamobile.com/PLTV/77777777/224/3221225678/index.m3u8?servicetype=1&
咪咕视频,http://cdnrrs.gx.chinamobile.com/PLTV/77777777/224/3221225961/index.m3u8?servicetype=1&
咪咕视频,http://cdnrrs.gx.chinamobile.com/PLTV/77777777/224/3221225972/index.m3u8?servicetype=1&
哒啵赛事,http://cdnrrs.gx.chinamobile.com/PLTV/77777777/224/3221225760/index.m3u8?servicetype=1&
四川卫视,http://cdnrrs.gx.chinamobile.com/PLTV/77777777/224/3221225757/index.m3u8?servicetype=1&
天津卫视,http://cdnrrs.gx.chinamobile.com/PLTV/77777777/224/3221226022/index.m3u8?servicetype=1&
宁夏卫视,http://cdnrrs.gx.chinamobile.com/PLTV/77777777/224/3221225782/index.m3u8?servicetype=1&
安徽卫视,http://cdnrrs.gx.chinamobile.com/PLTV/77777777/224/3221225886/index.m3u8?servicetype=1&
山东卫视,http://cdnrrs.gx.chinamobile.com/PLTV/77777777/224/3221226010/index.m3u8?servicetype=1&
山东教育卫视,http://cdnrrs.gx.chinamobile.com/PLTV/77777777/224/3221225708/index.m3u8?servicetype=1&
山西卫视,http://cdnrrs.gx.chinamobile.com/PLTV/77777777/224/3221225785/index.m3u8?servicetype=1&
广东卫视,http://cdnrrs.gx.chinamobile.com/PLTV/77777777/224/3221225913/index.m3u8?servicetype=1&
广东嘉佳卡通,http://cdnrrs.gx.chinamobile.com/PLTV/77777777/224/3221225797/index.m3u8?servicetype=1&
广东大湾区卫视,http://cdnrrs.gx.chinamobile.com/PLTV/77777777/224/3221225748/index.m3u8?servicetype=1&
广东珠江卫视,http://cdnrrs.gx.chinamobile.com/PLTV/77777777/224/3221225717/index.m3u8?servicetype=1&
广西卫视,http://cdnrrs.gx.chinamobile.com/PLTV/77777777/224/3221225767/index.m3u8?servicetype=1&
新疆兵团卫视,http://cdnrrs.gx.chinamobile.com/PLTV/77777777/224/3221225795/index.m3u8?servicetype=1&
新疆卫视,http://cdnrrs.gx.chinamobile.com/PLTV/77777777/224/3221225788/index.m3u8?servicetype=1&
江苏优漫卡通,http://cdnrrs.gx.chinamobile.com/PLTV/77777777/224/3221225791/index.m3u8?servicetype=1&
江苏卫视,http://cdnrrs.gx.chinamobile.com/PLTV/77777777/224/3221226025/index.m3u8?servicetype=1&
江西卫视,http://cdnrrs.gx.chinamobile.com/PLTV/77777777/224/3221225957/index.m3u8?servicetype=1&
河北卫视,http://cdnrrs.gx.chinamobile.com/PLTV/77777777/224/3221225773/index.m3u8?servicetype=1&
河南卫视,http://cdnrrs.gx.chinamobile.com/PLTV/77777777/224/3221225806/index.m3u8?servicetype=1&
浙江卫视,http://cdnrrs.gx.chinamobile.com/PLTV/77777777/224/3221225928/index.m3u8?servicetype=1&
海南卫视,http://cdnrrs.gx.chinamobile.com/PLTV/77777777/224/3221225752/index.m3u8?servicetype=1&
深圳卫视,http://cdnrrs.gx.chinamobile.com/PLTV/77777777/224/3221225951/index.m3u8?servicetype=1&
湖北卫视,http://cdnrrs.gx.chinamobile.com/PLTV/77777777/224/3221225954/index.m3u8?servicetype=1&
湖南卫视,http://cdnrrs.gx.chinamobile.com/PLTV/77777777/224/3221225919/index.m3u8?servicetype=1&
湖南金鹰卡通,http://cdnrrs.gx.chinamobile.com/PLTV/77777777/224/3221225702/index.m3u8?servicetype=1&
湖南金鹰纪实,http://cdnrrs.gx.chinamobile.com/PLTV/77777777/224/3221225699/index.m3u8?servicetype=1&
甘肃卫视,http://cdnrrs.gx.chinamobile.com/PLTV/77777777/224/3221225764/index.m3u8?servicetype=1&
直播南宁国际会展中心,http://cdnrrs.gx.chinamobile.com/PLTV/77777777/224/3221225872/index.m3u8?servicetype=1&
纯享4K,http://cdnrrs.gx.chinamobile.com/PLTV/77777777/224/3221225726/index.m3u8?servicetype=1&
西藏卫视,http://cdnrrs.gx.chinamobile.com/PLTV/77777777/224/3221225800/index.m3u8?servicetype=1&
西藏藏语卫视,http://cdnrrs.gx.chinamobile.com/PLTV/77777777/224/3221225828/index.m3u8?servicetype=1&
贵州卫视,http://cdnrrs.gx.chinamobile.com/PLTV/77777777/224/3221225770/index.m3u8?servicetype=1&
资讯,http://cdnrrs.gx.chinamobile.com/PLTV/77777777/224/3221226324/index.m3u8?servicetype=1
辽宁卫视,http://cdnrrs.gx.chinamobile.com/PLTV/77777777/224/3221226007/index.m3u8?servicetype=1&
重庆卫视,http://cdnrrs.gx.chinamobile.com/PLTV/77777777/224/3221225898/index.m3u8?servicetype=1&
陕西卫视,http://cdnrrs.gx.chinamobile.com/PLTV/77777777/224/3221225754/index.m3u8?servicetype=1&
青海卫视,http://cdnrrs.gx.chinamobile.com/PLTV/77777777/224/3221225705/index.m3u8?servicetype=1&
黑莓动画,http://cdnrrs.gx.chinamobile.com/PLTV/77777777/224/3221225710/index.m3u8?servicetype=1&
黑莓电影,http://cdnrrs.gx.chinamobile.com/PLTV/77777777/224/3221225740/index.m3u8?servicetype=1&
黑龙江卫视,http://cdnrrs.gx.chinamobile.com/PLTV/77777777/224/3221226019/index.m3u8?servicetype=1&
